Generate Information Summaries on R Packages • pkgattrs
…
the number of lines in the function used for code (code), for comments (comment), and for roxygen statements (roxygen), and, the fn_lines lines that are blank (blank): the sum of all these is given in total_lines

optionally, the cyclomatic complexity of the function (cyclocomp)

the name of the package repository, if it was obtained from one (pkg_repo)

the name of the package path, if it was a locally-available package (pkg_path)

the number of package functions that are called in fn_name (n_pkg_fns_called)

a list column with the names of the package functions called in fn_name (pkg_fns_called)

fn_info
#> # A tibble: 127 x 18
#>    pkg_name pkg_src fn_name exported r_file r_file_path ln_start ln_end
#>    <chr>    <chr>   <chr>   <lgl>    <chr>  <chr>          <int>  <int>
#>  1 pkgattrs GitHub  are_gi… FALSE    utils… ./R/utils.R        4     12
#>  2 pkgattrs GitHub  are_lo… FALSE    utils… ./R/utils.R       17     24
#>  3 pkgattrs GitHub  from_g… TRUE     from_… ./R/from_g…        8     16
#>  4 pkgattrs GitHub  functi… TRUE     funct… ./R/functi…       11     21
#>  5 pkgattrs GitHub  functi… TRUE     funct… ./R/functi…       35     54
#>  6 pkgattrs GitHub  get_fc… FALSE    get_f… ./R/get_fc…       13    139
#>  7 pkgattrs GitHub  pkgatt… TRUE     pkgat… ./R/pkgatt…       13    363
#>  8 pkgattrs GitHub  produc… FALSE    funct… ./R/functi…       57    103
#>  9 pkgattrs GitHub  write_… TRUE     write… ./R/write_…       10    101
#> 10 blastula GitHub  `%||%`  FALSE    utils… ./R/utils.R       41     43
#> # … with 117 more rows, and 10 more variables: fn_lines <int>, code <dbl>,
#> #   comment <dbl>, blank <dbl>, roxygen <dbl>, total_lines <dbl>,
#> #   pkg_repo <chr>, pkg_path <chr>, n_pkg_fns_called <int>,
#> #   pkg_fns_called <list>
…
